20

3
John Doe
Sally Sal
Silly Man
1 2 3
3 2 1
3 2 1

3
John Doe
Sally Sal
Silly Man
3 1 2
1 2 3
1 3 2

4
John Doe
Sally Sal
Silly Man
John Kim
3 1 2 4
1 2 3 4
1 3 2 4
1 2 3 4

4
John Doe
Sally Sal
Silly Man
John Kim
3 1 2 4
4 2 3 1
4 3 2 1
4 2 3 1

4
John Doe
Sally Sal
Silly Man
John Kim
3 1 2 4
4 2 3 1
2 3 1 4
1 2 3 4

4
John Doe
Sally Sal
Silly Man
John Kim
3 1 2 4
2 1 3 4
2 3 1 4
3 1 2 4

4
John Doe
Sally Sal
Silly Man
John Kim
2 1 3 4
1 2 3 4
2 3 1 4
3 2 1 4

5
John Doe
Sally Sal
Silly Man
John Kim
Westin Dennis
3 1 2 4 5
1 2 3 4 5
1 3 2 4 5
1 2 3 4 5
1 2 3 4 5

5
John Doe
Sally Sal
Silly Man
John Kim
Westin Dennis
3 1 2 4 5
5 2 3 4 1
3 5 2 4 1
5 2 3 4 1
1 5 3 4 2

5
John Doe
Sally Sal
Silly Man
John Kim
Westin Dennis
5 1 2 4 3
4 2 3 1 5
3 1 2 4 5
2 1 3 4 5
1 2 3 4 5

5
John Doe
Sally Sal
Silly Man
John Kim
Westin Dennis
3 1 2 4 5
1 5 3 4 2
2 3 1 4 5
3 2 1 4 5
2 1 3 4 5

6
John Doe
Sally Sal
Silly Man
John Kim
Westin Dennis
Doogs Dewgs
2 1 3 4 5 6
4 2 3 1 5 6
2 3 1 4 5 6
4 2 3 1 5 6
2 1 3 4 5 6
4 6 3 2 5 1

6
John Doe
Sally Sal
Silly Man
John Kim
Westin Dennis
Doogs Dewgs
2 1 3 4 5 6
4 2 3 1 5 6
2 3 1 4 5 6
4 2 3 1 5 6
4 1 3 2 5 6
4 6 3 2 5 1

4
John Doe
Sally Sal
Silly Man
Hey Guys
1 2 3 4
3 2 1 4
3 2 1 4
4 2 1 3

4
John Doe
Sally Sal
Silly Man
Hey Guys
4 2 3 1
3 2 1 4
3 2 1 4
4 2 1 3

4
John Doe
Sally Sal
Silly Man
Hey Guys
1 2 3 4
1 2 3 4
1 2 3 4
4 2 1 3

3
Dugg Doe
Sally Sal
Silly Man
2 3 1
2 3 1
2 3 1

3
Dugg Doe
Sally Sal
Silly Man
3 1 2
2 3 1
1 2 3

5
John Doe
Sally Sal
Silly Man
John Kim
Westin Dennis
3 1 2 4 5
5 1 2 4 3
2 3 4 1 5
3 2 1 4 5
2 5 3 4 1

5
John Doe
Sally Sal
Silly Man
John Kim
Westin Dennis
4 1 2 3 5
4 5 3 1 2
4 3 1 2 5
5 2 1 4 3
5 1 3 4 2
